^C:\USERS\DEOME\DESKTOP\CP 3\A7D83B52-GR11-REPO\PROJECT\SHOOTER2D\SHOOTER2D\DEBUG\SHOOTER2D.OBJ
C:\USERS\DEOME\DESKTOP\CP 3\A7D83B52-GR11-REPO\PROJECT\SHOOTER2D\DEBUG\SHOOTER2D.ILK
C:\USERS\DEOME\DESKTOP\CP 3\A7D83B52-GR11-REPO\PROJECT\SHOOTER2D\DEBUG\SHOOTER2D.EXE
C:\USERS\DEOME\DESKTOP\CP 3\A7D83B52-GR11-REPO\PROJECT\SHOOTER2D\DEBUG\SHOOTER2D.PDB
